An .red[Incomplete] Introduction to R
…
```r
library(nycflights13)
library(dplyr) # or library(tidyverse)
```

]

.pull-right[

### Data

```r
flights
## # A tibble: 336,776 x 19
##     year month   day dep_time sched_dep_time dep_delay arr_time
##    <int> <int> <int>    <int>          <int>     <dbl>    <int>
##  1  2013     1     1      517            515         2      830
##  2  2013     1     1      533            529         4      850
##  3  2013     1     1      542            540         2      923
##  4  2013     1     1      544            545        -1     1004
##  5  2013     1     1      554            600        -6      812
##  6  2013     1     1      554            558        -4      740
##  7  2013     1     1      555            600        -5      913
##  8  2013     1     1      557            600        -3      709
##  9  2013     1     1      557            600        -3      838
## 10  2013     1     1      558            600        -2      753
## # ... with 336,766 more rows, and 12 more variables: sched_arr_time <int>,
## #   arr_delay <dbl>, carrier <chr>, flight <int>, tailnum <chr>,
## #   origin <chr>, dest <chr>, air_time <dbl>, distance <dbl>, hour <dbl>,
## #   minute <dbl>, time_hour <dttm>
```
…
---

# Filtering variables

.bold[We can filter our data set based on given conditions for one or more variables with `filter()`]

--

.scrollable90[

```r
# filter for all observations in month 1 (January)
filter(flights, month == 1)
## # A tibble: 27,004 x 19
##     year month   day dep_time sched_dep_time dep_delay arr_time
##    <int> <int> <int>    <int>          <int>     <dbl>    <int>
##  1  2013     1     1      517            515         2      830
##  2  2013     1     1      533            529         4      850
##  3  2013     1     1      542            540         2      923
##  4  2013     1     1      544            545        -1     1004
##  5  2013     1     1      554            600        -6      812
##  6  2013     1     1      554            558        -4      740
##  7  2013     1     1      555            600        -5      913
##  8  2013     1     1      557            600        -3      709
##  9  2013     1     1      557            600        -3      838
## 10  2013     1     1      558            600        -2      753
## # ... with 26,994 more rows, and 12 more variables: sched_arr_time <int>,
## #   arr_delay <dbl>, carrier <chr>, flight <int>, tailnum <chr>,
## #   origin <chr>, dest <chr>, air_time <dbl>, distance <dbl>, hour <dbl>,
## #   minute <dbl>, time_hour <dttm>

# filter for all observations on January 1st
filter(flights, month == 1, day == 1)
## # A tibble: 842 x 19
##     year month   day dep_time sched_dep_time dep_delay arr_time
##    <int> <int> <int>    <int>          <int>     <dbl>    <int>
##  1  2013     1     1      517            515         2      830
##  2  2013     1     1      533            529         4      850
##  3  2013     1     1      542            540         2      923
##  4  2013     1     1      544            545        -1     1004
##  5  2013     1     1      554            600        -6      812
##  6  2013     1     1      554            558        -4      740
##  7  2013     1     1      555            600        -5      913
##  8  2013     1     1      557            600        -3      709
##  9  2013     1     1      557            600        -3      838
## 10  2013     1     1      558            600        -2      753
## # ... with 832 more rows, and 12 more variables: sched_arr_time <int>,
## #   arr_delay <dbl>, carrier <chr>, flight <int>, tailnum <chr>,
## #   origin <chr>, dest <chr>, air_time <dbl>, distance <dbl>, hour <dbl>,
## #   minute <dbl>, time_hour <dttm>

# filter for all observations on January 1st with a departure delay
filter(flights, month == 1, day == 1, dep_delay > 0)
## # A tibble: 352 x 19
##     year month   day dep_time sched_dep_time dep_delay arr_time
##    <int> <int> <int>    <int>          <int>     <dbl>    <int>
##  1  2013     1     1      517            515         2      830
##  2  2013     1     1      533            529         4      850
##  3  2013     1     1      542            540         2      923
##  4  2013     1     1      601            600         1      844
##  5  2013     1     1      608            600         8      807
##  6  2013     1     1      611            600        11      945
##  7  2013     1     1      613            610         3      925
##  8  2013     1     1      623            610        13      920
##  9  2013     1     1      632            608        24      740
## 10  2013     1     1      644            636         8      931
## # ... with 342 more rows, and 12 more variables: sched_arr_time <int>,
## #   arr_delay <dbl>, carrier <chr>, flight <int>, tailnum <chr>,
## #   origin <chr>, dest <chr>, air_time <dbl>, distance <dbl>, hour <dbl>,
## #   minute <dbl>, time_hour <dttm>
```

]

---

# Save new data frame

.bold[dplyr functions .red[do not] over-write data; must save to a new data frame object.]

```r
dec25 <- filter(flights, month == 12, day == 25)
dec25
## # A tibble: 719 x 19
##     year month   day dep_time sched_dep_time dep_delay arr_time
##    <int> <int> <int>    <int>          <int>     <dbl>    <int>
##  1  2013    12    25      456            500        -4      649
##  2  2013    12    25      524            515         9      805
##  3  2013    12    25      542            540         2      832
##  4  2013    12    25      546            550        -4     1022
##  5  2013    12    25      556            600        -4      730
##  6  2013    12    25      557            600        -3      743
##  7  2013    12    25      557            600        -3      818
##  8  2013    12    25      559            600        -1      855
##  9  2013    12    25      559            600        -1      849
## 10  2013    12    25      600            600         0      850
## # ... with 709 more rows, and 12 more variables: sched_arr_time <int>,
## #   arr_delay <dbl>, carrier <chr>, flight <int>, tailnum <chr>,
## #   origin <chr>, dest <chr>, air_time <dbl>, distance <dbl>, hour <dbl>,
## #   minute <dbl>, time_hour <dttm>
```
…
]

---

# Selecting variables

.bold[We can select variables of interest with the `select()` function]

--

.pull-left-30[

```r
select(flights, year, month, day)
## # A tibble: 336,776 x 3
##     year month   day
##    <int> <int> <int>
##  1  2013     1     1
##  2  2013     1     1
##  3  2013     1     1
##  4  2013     1     1
##  5  2013     1     1
##  6  2013     1     1
##  7  2013     1     1
##  8  2013     1     1
##  9  2013     1     1
## 10  2013     1     1
## # ... with 336,766 more rows
```
]

.pull-left-30[
<br><br><br><br>
<center>
Same as `\(\longrightarrow\)`
</center>

]

.pull-right-30[

```r
select(flights, year:day)
## # A tibble: 336,776 x 3
##     year month   day
##    <int> <int> <int>
##  1  2013     1     1
##  2  2013     1     1
##  3  2013     1     1
##  4  2013     1     1
##  5  2013     1     1
##  6  2013     1     1
##  7  2013     1     1
##  8  2013     1     1
##  9  2013     1     1
## 10  2013     1     1
## # ... with 336,766 more rows
```
…
...and more (see `?tidyselect::select_helpers`)

]

.pull-right[

### Examples

```r
# starts with example
select(flights, starts_with("arr"))
## # A tibble: 336,776 x 2
##    arr_time arr_delay
##       <int>     <dbl>
##  1      830        11
##  2      850        20
##  3      923        33
##  4     1004       -18
##  5      812       -25
##  6      740        12
##  7      913        19
##  8      709       -14
##  9      838        -8
## 10      753         8
## # ... with 336,766 more rows

# ends with example
select(flights, ends_with("time"))
## # A tibble: 336,776 x 5
##    dep_time sched_dep_time arr_time sched_arr_time air_time
##       <int>          <int>    <int>          <int>    <dbl>
##  1      517            515      830            819      227
##  2      533            529      850            830      227
##  3      542            540      923            850      160
##  4      544            545     1004           1022      183
##  5      554            600      812            837      116
##  6      554            558      740            728      150
##  7      555            600      913            854      158
##  8      557            600      709            723       53
##  9      557            600      838            846      140
## 10      558            600      753            745      138
## # ... with 336,766 more rows

# combining different select helpers
select(flights, c(carrier, ends_with("time"), contains("arr")))
## # A tibble: 336,776 x 7
##    carrier dep_time sched_dep_time arr_time sched_arr_time air_time
##    <chr>      <int>          <int>    <int>          <int>    <dbl>
##  1 UA           517            515      830            819      227
##  2 UA           533            529      850            830      227
##  3 AA           542            540      923            850      160
##  4 B6           544            545     1004           1022      183
##  5 DL           554            600      812            837      116
##  6 UA           554            558      740            728      150
##  7 B6           555            600      913            854      158
##  8 EV           557            600      709            723       53
##  9 B6           557            600      838            846      140
## 10 AA           558            600      753            745      138
## # ... with 336,766 more rows, and 1 more variable: arr_delay <dbl>
```
…
# Arranging data based on values

.bold[We can reorder variables in ascending or descending order with the `arrange()` function]

--

.scrollable90[

.pull-left[

### Ascending order

```r
arrange(flights, dep_time)
## # A tibble: 336,776 x 19
##     year month   day dep_time sched_dep_time dep_delay arr_time
##    <int> <int> <int>    <int>          <int>     <dbl>    <int>
##  1  2013     1    13        1           2249        72      108
##  2  2013     1    31        1           2100       181      124
##  3  2013    11    13        1           2359         2      442
##  4  2013    12    16        1           2359         2      447
##  5  2013    12    20        1           2359         2      430
##  6  2013    12    26        1           2359         2      437
##  7  2013    12    30        1           2359         2      441
##  8  2013     2    11        1           2100       181      111
##  9  2013     2    24        1           2245        76      121
## 10  2013     3     8        1           2355         6      431
## # ... with 336,766 more rows, and 12 more variables: sched_arr_time <int>,
## #   arr_delay <dbl>, carrier <chr>, flight <int>, tailnum <chr>,
## #   origin <chr>, dest <chr>, air_time <dbl>, distance <dbl>, hour <dbl>,
## #   minute <dbl>, time_hour <dttm>
```

]

.pull-right[

### Descending order

```r
arrange(flights, desc(dep_time))
## # A tibble: 336,776 x 19
##     year month   day dep_time sched_dep_time dep_delay arr_time
##    <int> <int> <int>    <int>          <int>     <dbl>    <int>
##  1  2013    10    30     2400           2359         1      327
##  2  2013    11    27     2400           2359         1      515
##  3  2013    12     5     2400           2359         1      427
##  4  2013    12     9     2400           2359         1      432
##  5  2013    12     9     2400           2250        70       59
##  6  2013    12    13     2400           2359         1      432
##  7  2013    12    19     2400           2359         1      434
##  8  2013    12    29     2400           1700       420      302
##  9  2013     2     7     2400           2359         1      432
## 10  2013     2     7     2400           2359         1      443
## # ... with 336,766 more rows, and 12 more variables: sched_arr_time <int>,
## #   arr_delay <dbl>, carrier <chr>, flight <int>, tailnum <chr>,
## #   origin <chr>, dest <chr>, air_time <dbl>, distance <dbl>, hour <dbl>,
## #   minute <dbl>, time_hour <dttm>
```
…
--

.scrollable90[
.pull-left[

```r
# create smaller data set so we can see the results
flights_sml <- select(flights, 
  ends_with("delay"), 
  distance, 
  air_time
)

flights_sml
## # A tibble: 336,776 x 4
##    dep_delay arr_delay distance air_time
##        <dbl>     <dbl>    <dbl>    <dbl>
##  1         2        11     1400      227
##  2         4        20     1416      227
##  3         2        33     1089      160
##  4        -1       -18     1576      183
##  5        -6       -25      762      116
##  6        -4        12      719      150
##  7        -5        19     1065      158
##  8        -3       -14      229       53
##  9        -3        -8      944      140
## 10        -2         8      733      138
## # ... with 336,766 more rows
```

]

.pull-right[

```r
# create two new variables (gain, speed)
mutate(flights_sml,
  gain = arr_delay - dep_delay,
  speed = distance / air_time * 60
)
## # A tibble: 336,776 x 6
##    dep_delay arr_delay distance air_time  gain speed
##        <dbl>     <dbl>    <dbl>    <dbl> <dbl> <dbl>
##  1         2        11     1400      227     9  370.
##  2         4        20     1416      227    16  374.
##  3         2        33     1089      160    31  408.
##  4        -1       -18     1576      183   -17  517.
##  5        -6       -25      762      116   -19  394.
##  6        -4        12      719      150    16  288.
##  7        -5        19     1065      158    24  404.
##  8        -3       -14      229       53   -11  259.
##  9        -3        -8      944      140    -5  405.
## 10        -2         8      733      138    10  319.
## # ... with 336,766 more rows

# mutate creates variables in order so we can create 
# variables from recently created variables
mutate(flights_sml,
  gain = arr_delay - dep_delay,
  hours = air_time / 60,
  gain_per_hour = gain / hours
)
## # A tibble: 336,776 x 7
##    dep_delay arr_delay distance air_time  gain hours gain_per_hour
##        <dbl>     <dbl>    <dbl>    <dbl> <dbl> <dbl>         <dbl>
##  1         2        11     1400      227     9 3.78           2.38
##  2         4        20     1416      227    16 3.78           4.23
##  3         2        33     1089      160    31 2.67          11.6 
##  4        -1       -18     1576      183   -17 3.05          -5.57
##  5        -6       -25      762      116   -19 1.93          -9.83
##  6        -4        12      719      150    16 2.5            6.4 
##  7        -5        19     1065      158    24 2.63           9.11
##  8        -3       -14      229       53   -11 0.883        -12.5 
##  9        -3        -8      944      140    -5 2.33          -2.14
## 10        -2         8      733      138    10 2.3            4.35
## # ... with 336,766 more rows
```
…
]

.pull-right[

```r
# mean center data
transmute(flights, center_delay = dep_delay / mean(dep_delay, na.rm = TRUE))
## # A tibble: 336,776 x 1
##    center_delay
##           <dbl>
##  1       0.158 
##  2       0.316 
##  3       0.158 
##  4      -0.0791
##  5      -0.475 
##  6      -0.316 
##  7      -0.396 
##  8      -0.237 
##  9      -0.237 
## 10      -0.158 
## # ... with 336,766 more rows

# transform values
transmute(flights,
  log_air_time = log2(air_time),
  exp_delay = exp(dep_delay))
## # A tibble: 336,776 x 2
##    log_air_time exp_delay
##           <dbl>     <dbl>
##  1         7.83   7.39   
##  2         7.83  54.6    
##  3         7.32   7.39   
##  4         7.52   0.368  
##  5         6.86   0.00248
##  6         7.23   0.0183 
##  7         7.30   0.00674
##  8         5.73   0.0498 
##  9         7.13   0.0498 
## 10         7.11   0.135  
## # ... with 336,766 more rows

# lag and cumsum values
transmute(flights,
  dep_delay = dep_delay,
  lag_delay = lag(dep_delay),
  sum_delay = cumsum(dep_delay))
## # A tibble: 336,776 x 3
##    dep_delay lag_delay sum_delay
##        <dbl>     <dbl>     <dbl>
##  1         2        NA         2
##  2         4         2         6
##  3         2         4         8
##  4        -1         2         7
##  5        -6        -1         1
##  6        -4        -6        -3
##  7        -5        -4        -8
##  8        -3        -5       -11
##  9        -3        -3       -14
## 10        -2        -3       -16
## # ... with 336,766 more rows
```
…
--

.pull-right[

### Solution

```r
customers %>%
  filter(Gender == "Male") %>%
  mutate(ratio = CardSpendMonth / HHIncome) %>%
  group_by(Age) %>%
  summarize(Avg_ratio = mean(ratio, na.rm = TRUE)) %>%
  arrange(desc(Avg_ratio))
## # A tibble: 62 x 2
##      Age Avg_ratio
##    <int>     <dbl>
##  1    20     0.147
##  2    18     0.145
##  3    79     0.144
##  4    19     0.143
##  5    24     0.136
##  6    75     0.130
##  7    78     0.128
##  8    21     0.126
##  9    28     0.125
## 10    74     0.124
## # ... with 52 more rows
```
…
```r
library(ggplot2) # or library(tidyverse)
```

]

.pull-right[

### Data

```r
# built-in data set
mpg
## # A tibble: 234 x 11
##    manufacturer model displ  year   cyl trans drv     cty   hwy fl    cla…
##    <chr>        <chr> <dbl> <int> <int> <chr> <chr> <int> <int> <chr> <ch>
##  1 audi         a4      1.8  1999     4 auto… f        18    29 p     com…
##  2 audi         a4      1.8  1999     4 manu… f        21    29 p     com…
##  3 audi         a4      2    2008     4 manu… f        20    31 p     com…
##  4 audi         a4      2    2008     4 auto… f        21    30 p     com…
##  5 audi         a4      2.8  1999     6 auto… f        16    26 p     com…
##  6 audi         a4      2.8  1999     6 manu… f        18    26 p     com…
##  7 audi         a4      3.1  2008     6 auto… f        18    27 p     com…
##  8 audi         a4 q…   1.8  1999     4 manu… 4        18    26 p     com…
##  9 audi         a4 q…   1.8  1999     4 auto… 4        16    25 p     com…
## 10 audi         a4 q…   2    2008     4 manu… 4        20    28 p     com…
## # ... with 224 more rows
```
…
